node-gyp
ndb
husky
puppeteer
caniuse-cmd
commander
underscore-cli
sodium
random-number-csprng
yargs
fs-extra
chalk
colors
lodash
core-js@3
is-my-json-valid
ajv
uglify-js
ncp
cpr
cpy-cli
chownr
rimraf
prettier
cross-env
npm-run-all
npm-check-updates
karma
nyc
conventional-changelog-cli
commitizen
standard
snazzy
webpack
rollup
htmllint
stylelint
sass-lint
commitlint
eslint
eslint-plugin-typescript
eslint-config-prettier
eslint-plugin-prettier
eslint-config-typescript
@typescript-eslint/typescript-estree
@typescript-eslint/parser
@typescript-eslint/eslint-plugin
@typescript-eslint/eslint-plugin-tslint
tslint-to-eslint-config
typescript
marked
marked-man
jsdoc
typedoc
@compodoc/compodoc
ts-node
tsify
mocha
jest
jasmine
gherkin
cucumber
selenium-webdriver
protractor
enzyme
tap
brunch
broccoli
browserify
node-sass
ember-cli
@vue/cli
@angular/cli
@angular-devkit/build-optimizer
